<svg xmlns="http://www.w3.org/2000/svg" width="98.833" height="85.601" viewBox="0 0 98.833 85.601">
  <g id="icon3" transform="translate(-3061.827 1407.344)">
    <path id="Path_260" data-name="Path 260" d="M3184.327-1336.108" transform="translate(-38.415 -22.339)" fill="#1a1818"/>
    <g id="Group_203" data-name="Group 203" transform="translate(3061.827 -1407.344)">
      <path id="Path_261" data-name="Path 261" d="M3160.659-1378.81l-49.411-28.534-49.422,28.534,49.411,28.534Z" transform="translate(-3061.827 1407.344)" fill="#2e7cc1"/>
      <path id="Path_262" data-name="Path 262" d="M3160.659-1378.81l-49.411-28.534-49.422,28.534,49.411,28.534Z" transform="translate(-3061.827 1407.344)" fill="#2e7cc1"/>
      <path id="Path_263" data-name="Path 263" d="M3160.659-1378.81l-49.411-28.534-49.422,28.534,49.411,28.534Z" transform="translate(-3061.827 1407.344)" fill="#2e7cc1"/>
      <path id="Path_264" data-name="Path 264" d="M3160.659-1378.81l-49.411-28.534-49.422,28.534,49.411,28.534Z" transform="translate(-3061.827 1407.344)" fill="#2e7cc1"/>
    </g>
    <path id="Path_265" data-name="Path 265" d="M3138.347-1344.95a6.148,6.148,0,0,0,1.616-4.14c0-.05-.011-.1-.013-.149v-5.938l-7.84-1.542a14.93,14.93,0,0,0-1.758-.287c-.1-.012-.2-.023-.3-.033-.155-.014-.311-.025-.468-.035-.3-.019-.6-.032-.905-.032h-.049c-.331,0-.656.014-.979.036-.122.007-.242.016-.363.027-.187.016-.372.038-.557.06-.3.036-.591.081-.881.133-.063.012-.128.02-.19.032l-.3.058c-.03.006-.06.01-.089.017l-7.958,1.512v6.187l.046.576c0,.033.013.064.017.1.02.156.053.308.084.46.024.114.043.229.074.341.039.145.09.286.141.427.042.122.081.244.131.362s.109.231.167.345c.067.136.131.273.208.4.059.1.128.2.192.3.087.134.173.268.27.4.083.112.177.219.269.328s.171.207.263.307c.136.147.283.287.432.427.053.05.1.1.158.15a12.713,12.713,0,0,0,6.838,2.919c.052.007.1.01.156.016.271.033.544.064.823.082.35.025.7.038,1.052.038h.013c.046,0,.09,0,.137,0,.31,0,.62-.012.927-.034.226-.015.447-.042.668-.066.12-.014.241-.023.36-.039.267-.036.528-.082.789-.13.069-.013.139-.024.208-.038.278-.056.549-.121.818-.191.051-.014.1-.026.154-.041q.4-.11.792-.241l.167-.058q.368-.129.72-.275c.076-.031.15-.064.224-.1.209-.092.415-.186.615-.287.1-.053.207-.108.31-.164.164-.089.327-.178.484-.272.135-.082.265-.168.4-.254s.24-.157.354-.239c.152-.11.3-.225.438-.341.087-.071.178-.139.262-.212.139-.12.266-.247.4-.373.082-.081.168-.159.247-.242S3138.268-1344.856,3138.347-1344.95Z" transform="translate(-17.398 -15.753)" fill="#193874"/>
    <path id="Path_266" data-name="Path 266" d="M3061.827-1365.775v28.534l49.411,28.534v-28.534Z" transform="translate(0 -13.036)" fill="#193874"/>
    <path id="Path_267" data-name="Path 267" d="M3183.233-1365.775v28.534l-49.422,28.534v-28.534Z" transform="translate(-22.574 -13.036)" fill="#2f7bc0"/>
    <ellipse id="Ellipse_140" data-name="Ellipse 140" cx="11.321" cy="8.019" rx="11.321" ry="8.019" transform="translate(3099.917 -1378.81)" fill="#2f7bc0"/>
    <path id="Path_268" data-name="Path 268" d="M3174.347-1365.734a6.149,6.149,0,0,0,1.616-4.139c0-.051-.011-.1-.013-.15v-5.937l-7.84-1.543a15.218,15.218,0,0,0-1.758-.288c-.1-.011-.2-.023-.3-.032-.155-.014-.311-.026-.468-.035-.3-.019-.6-.032-.906-.033h-.049c-.331,0-.656.015-.979.036-.121.008-.242.017-.363.027-.187.016-.372.037-.557.06-.3.036-.591.081-.881.133-.063.012-.128.021-.19.032l-.3.058c-.03.007-.06.011-.089.017l-7.958,1.512v6.188l.047.576c0,.033.013.064.017.1.02.155.053.307.084.46.024.114.043.229.074.34.039.144.091.285.141.427.042.121.081.243.131.361s.109.231.166.345c.067.136.132.272.208.4.059.1.128.2.192.3.087.133.173.268.27.4.084.112.177.22.269.328s.171.208.263.307c.136.147.283.288.432.428.053.049.1.1.158.15a12.709,12.709,0,0,0,6.838,2.919c.052.007.1.01.156.017.272.032.544.064.823.082.35.024.7.038,1.052.038h.013c.046,0,.091,0,.136,0,.31,0,.62-.012.927-.033.226-.015.447-.041.668-.066.12-.013.241-.023.36-.039.267-.036.528-.082.789-.13.069-.013.139-.024.207-.038.278-.056.549-.121.818-.191.052-.014.1-.026.155-.04.269-.073.532-.154.791-.241l.168-.057c.245-.086.485-.178.72-.275.076-.031.15-.064.225-.1.209-.092.415-.186.615-.287.1-.053.207-.108.309-.164.164-.089.328-.178.485-.272.135-.081.264-.167.395-.253s.24-.157.354-.24c.152-.11.3-.225.438-.341.087-.071.178-.139.262-.211.138-.121.266-.248.4-.374.082-.081.169-.159.247-.242S3174.268-1365.641,3174.347-1365.734Z" transform="translate(-28.687 -9.235)" fill="#193874"/>
    <ellipse id="Ellipse_141" data-name="Ellipse 141" cx="11.321" cy="8.019" rx="11.321" ry="8.019" transform="translate(3124.627 -1393.077)" fill="#2f7bc0"/>
    <path id="Path_269" data-name="Path 269" d="M3103.014-1365.734a6.153,6.153,0,0,0,1.616-4.139c0-.051-.011-.1-.014-.15v-5.937l-7.839-1.543a15.218,15.218,0,0,0-1.758-.288c-.1-.011-.2-.023-.3-.032-.155-.014-.311-.026-.468-.035-.3-.019-.6-.032-.906-.033h-.05c-.33,0-.656.015-.978.036-.122.008-.242.017-.363.027-.187.016-.372.037-.557.06-.3.036-.592.081-.881.133-.063.012-.128.021-.19.032l-.3.058c-.03.007-.06.011-.089.017l-7.959,1.512v6.188l.047.576c0,.033.014.064.018.1.019.155.053.307.084.46.024.114.043.229.074.34.039.144.091.285.14.427.043.121.082.243.131.361s.11.231.167.345c.066.136.132.272.208.4.059.1.127.2.192.3.087.133.173.268.27.4.083.112.177.22.268.328s.171.208.264.307c.135.147.283.288.431.428.053.049.1.1.158.15a12.709,12.709,0,0,0,6.838,2.919c.052.007.1.01.156.017.272.032.545.064.823.082.35.024.7.038,1.052.038h.014c.046,0,.091,0,.136,0,.311,0,.621-.012.928-.033.226-.015.447-.041.668-.066.119-.013.24-.023.36-.039.267-.036.528-.082.789-.13.068-.013.139-.024.207-.038.277-.056.549-.121.818-.191l.155-.04c.269-.073.532-.154.791-.241l.168-.057q.367-.13.72-.275c.075-.031.149-.064.224-.1.209-.092.415-.186.615-.287.1-.053.206-.108.309-.164.164-.089.328-.178.485-.272.135-.081.264-.167.394-.253s.24-.157.355-.24c.152-.11.3-.225.438-.341.087-.071.178-.139.261-.211.138-.121.266-.248.4-.374.082-.081.169-.159.247-.242S3102.934-1365.641,3103.014-1365.734Z" transform="translate(-6.318 -9.235)" fill="#193874"/>
    <ellipse id="Ellipse_142" data-name="Ellipse 142" cx="11.321" cy="8.019" rx="11.321" ry="8.019" transform="translate(3075.664 -1393.077)" fill="#2f7bc0"/>
    <path id="Path_270" data-name="Path 270" d="M3139.014-1386.519a6.153,6.153,0,0,0,1.616-4.14c0-.05-.011-.1-.014-.149v-5.938l-7.839-1.543a15.188,15.188,0,0,0-1.758-.288c-.1-.011-.2-.023-.3-.032-.155-.014-.311-.026-.468-.035-.3-.019-.6-.031-.905-.032h-.05c-.33,0-.655.014-.978.035-.122.007-.242.017-.363.027-.187.016-.372.037-.557.06-.3.036-.591.081-.881.133-.063.011-.127.02-.19.032l-.3.058-.089.016-7.959,1.512v6.187l.046.576c0,.033.014.064.018.1.019.156.053.308.084.46.024.114.043.229.074.341.039.145.091.286.14.427.042.121.082.244.131.362s.11.231.167.345c.066.136.132.272.208.4.059.1.127.2.192.3.087.134.173.268.27.4.083.112.178.219.269.327s.171.208.264.308c.135.147.283.287.431.427.053.049.1.1.159.15a12.718,12.718,0,0,0,6.838,2.919c.051.007.1.01.155.016.272.032.545.064.824.083.349.025.7.038,1.051.038h.014c.046,0,.091,0,.136-.005.311,0,.621-.012.928-.033.226-.015.447-.042.668-.067.12-.013.241-.023.36-.039.267-.035.528-.081.789-.13.069-.013.139-.024.208-.038.277-.055.549-.12.818-.19l.155-.041c.269-.073.532-.154.791-.241l.168-.058q.368-.129.72-.275l.224-.1c.208-.091.415-.186.614-.286.1-.053.207-.109.31-.164.164-.089.328-.178.485-.273.135-.082.264-.168.394-.254s.24-.156.355-.239c.151-.11.295-.226.438-.342.087-.071.178-.139.261-.211.138-.121.267-.247.4-.374.082-.08.169-.159.247-.242S3138.934-1386.425,3139.014-1386.519Z" transform="translate(-17.607 -2.718)" fill="#193874"/>
    <ellipse id="Ellipse_143" data-name="Ellipse 143" cx="11.321" cy="8.019" rx="11.321" ry="8.019" transform="translate(3100.375 -1407.344)" fill="#2f7bc0"/>
  </g>
</svg>
